MCnebula workflow for LC-MS/MS dataset analysis
…
MCnebula::build_classes_tree_list()
#> INFO: Classification Index in.MCn.sirius project ---> canopus.tsv 
#> A total of 11 levels.
#> These classes (upon ClassyFire and CANOPUS) were separated into sub-lists.
#>         Use following arguments to get some specific classes:
#>         .MCn.class_tree_list[[3]] >>> superclass
#>         .MCn.class_tree_list[[4]] >>> class
#>         .MCn.class_tree_list[[5]] >>> subclass
#>         .MCn.class_tree_list[[6]] >>> level 5

The frame of returned project, e.g.:

.MCn.class_tree_list[[4]]
#> # A tibble: 442 × 6
#>    relativeIndex absoluteIndex id              name         parentId description
#>            <int>         <int> <chr>           <chr>        <chr>    <chr>      
#>  1             3             3 CHEMONT:0000003 Thiepanes    CHEMONT… Organic co…
#>  2             5             6 CHEMONT:0000006 Benzoxazoli… CHEMONT… Organic co…
#>  3            15            18 CHEMONT:0000018 Anthracenes  CHEMONT… Organic co…
#>  4            16            19 CHEMONT:0000019 Dibenzocycl… CHEMONT… Compounds …
#>  5            17            20 CHEMONT:0000020 Fluorenes    CHEMONT… Compounds …
#>  6            18            21 CHEMONT:0000021 Indenes and… CHEMONT… Compounds …
#>  7            19            22 CHEMONT:0000022 Naphthacenes CHEMONT… Compounds …
#>  8            20            23 CHEMONT:0000023 Naphthalenes CHEMONT… Compounds …
#>  9            21            24 CHEMONT:0000024 Pentacenes   CHEMONT… Compounds …
#> 10            22            25 CHEMONT:0000025 Phenanthren… CHEMONT… Polycyclic…
#> # … with 432 more rows
…
  ## min_possess, 20 or more may be better
  min_possess = 1,
  ## 0.1 may better
  max_possess_pct = 0.9
)
#> [INFO] MCnebula run: collate_ppcp
#> ## collate_ppcp: check_dir
#> ## STAT of PPCP dataset: 5(formula with PPCP)/5(all formula) 
#> ## collate_ppcp: method_summarize_nebula_class
#> ## collate_ppcp: method_summarize_nebula_index.
#> ## Method part: class_retrieve
#> ## Method part: identical_filter
#> ## Method part: fun_filter_via_struc_score
#> [INFO] MCnebula Job Done: collate_ppcp.
#> # A tibble: 25 × 5
#> # Groups:   relativeIndex [12]
#>    relativeIndex name                             hierarchy .id         V1
#>            <int> <chr>                                <int> <chr>    <dbl>
#>  1             9 Lipids and lipid-like molecules          3 gnps1234 0.995
#>  2           233 Phenylpropanoids and polyketides         3 gnps1537 0.998
#>  3           233 Phenylpropanoids and polyketides         3 gnps1539 0.999
#>  4           235 Organic acids and derivatives            3 gnps1537 0.999
#>  5           235 Organic acids and derivatives            3 gnps1539 1.00 
#>  6           235 Organic acids and derivatives            3 gnps1567 0.997
#>  7           235 Organic acids and derivatives            3 gnps1588 0.990
#>  8           247 Alkaloids and derivatives                3 gnps1234 0.998
#>  9          1298 Benzenoids                               3 gnps1537 0.999
#> 10          1298 Benzenoids                               3 gnps1539 0.999
#> # … with 15 more rows
…
#>    1: 9.999967e-01             0
#>    2: 1.175820e-05             1
#>    3: 9.987737e-01             2
#>    4: 8.464927e-10             3
#>    5: 3.867385e-10             4
#>   ---                           
#> 2505: 1.825751e-11          2504
#> 2506: 1.821264e-13          2505
#> 2507: 2.369786e-15          2506
#> 2508: 7.240430e-12          2507
#> 2509: 9.999823e-01          2508
head(.MCn.nebula_class, n = 1) %>% 
  lapply(dplyr::as_tibble)
#> $gnps1234
#> # A tibble: 26 × 6
#>    relativeIndex    V1 hierarchy absoluteIndex id              name             
#>            <int> <dbl>     <int>         <int> <chr>           <chr>            
#>  1          2012 1.00          6          3781 CHEMONT:0003788 Aconitane-type d…
#>  2          1302 1.00          6          2451 CHEMONT:0002452 Tertiary amines  
#>  3           593 0.999         6          1292 CHEMONT:0001292 Cyclic alcohols …
#>  4           512 0.995         6          1167 CHEMONT:0001167 Dialkyl ethers   
#>  5           834 0.971         6          1669 CHEMONT:0001670 Tertiary alcohols
#>  6          1191 0.962         6          2285 CHEMONT:0002286 Polyols          
#>  7           826 0.958         6          1660 CHEMONT:0001661 Secondary alcoho…
#>  8          1309 0.941         6          2459 CHEMONT:0002460 Alkanolamines    
#>  9          1299 1.00          5          2448 CHEMONT:0002449 Amines           
#> 10           116 1.00          5           129 CHEMONT:0000129 Alcohols and pol…
#> # … with 16 more rows

   Indeed, the above prepared instance data is too small to show the detail of the following function of MCnebula. Hence, we used another projects which has been collated done via above functions.

### the following project were auto-loaded while use 'library(MCnebula)'
inst_formula_set
#> # A tibble: 700 × 8
#>    .id       rank precursorFormula molecularFormula adduct    ZodiacScore
#>    <chr>    <dbl> <chr>            <chr>            <chr>           <dbl>
#>  1 gnps1588     1 C24H17N3O2       C24H17N3O2       [M + H]+        0    
#>  2 gnps201      1 C17H20N2O5S      C17H20N2O5S      [M + H]+        0    
#>  3 gnps2137     1 C35H46O11        C35H46O11        [M + K]+        0.699
#>  4 gnps2588     1 C22H26O11        C22H26O11        [M + H]+        0    
#>  5 gnps2679     1 C32H38N2O6       C32H38N2O6       [M + H]+        0    
#>  6 gnps2731     1 C30H28O12        C30H28O12        [M + H]+        0    
#>  7 gnps2826     1 C32H56O13        C32H56O13        [M + H]+        0    
#>  8 gnps3071     1 C17H20O5         C17H20O5         [M + Na]+       0    
#>  9 gnps3116     1 C20H21NO4        C20H21NO4        [M + H]+        0    
#> 10 gnps3638     1 C19H22O5         C19H22O5         [M + H]+        0    
#> # … with 690 more rows, and 2 more variables: `massErrorPrecursor(ppm)` <dbl>,
#> #   use_zodiac <lgl>
inst_structure_set
#> # A tibble: 700 × 7
#>    .id      file_name         score smiles tanimotoSimilar… structure_rank name 
#>    <chr>    <chr>             <dbl> <chr>             <dbl>          <dbl> <chr>
#>  1 gnps4260 C18H26N2O9_[M+H]+ -34.3 CC(C(…            0.944              1 null 
#>  2 gnps7278 C23H36O6_[M+H]+   -32.2 CCC(C…            0.921              1 null 
#>  3 gnps3385 C15H15NO3_[M+H]+  -75.4 C1=CC…            0.613              1 null 
#>  4 gnps1779 C16H17NO3_[M+H]+  -14.5 C1CCN…            0.989              1 null 
#>  5 gnps7175 C8H15N5S_[M+H]+   -11.4 CCNC1…            1                  1 null 
#>  6 gnps236  C18H20N2_[M+H]+   -10.5 CN1CC…            1                  1 null 
#>  7 gnps2588 C22H26O11_[M+H]+  -13.6 CC(C)…            1                  1 null 
#>  8 gnps5852 C33H52O13_[M+Na]+ -52.0 CC12C…            0.843              1 null 
#>  9 gnps4461 C12H14O5_[M+H]+   -37.0 CCOC(…            0.854              1 null 
#> 10 gnps3779 C23H22O13_[M+H]+  -11.7 CC(=O…            1                  1 null 
#> # … with 690 more rows
…
MCnebula::collate_ppcp(
  min_possess = 20,
  max_possess_pct = 0.1
)
#> [INFO] MCnebula run: collate_ppcp
#> ## collate_ppcp: check_dir
#> ## STAT of PPCP dataset: 1(formula with PPCP)/5(all formula) 
#> ## collate_ppcp: method_summarize_nebula_class
#> ## collate_ppcp: method_summarize_nebula_index.
#> ## Method part: class_retrieve
#> ## Method part: identical_filter
#> ## Method part: fun_filter_via_struc_score
#> [INFO] MCnebula Job Done: collate_ppcp.
#> # A tibble: 1,332 × 5
#> # Groups:   relativeIndex [38]
#>    relativeIndex name                   hierarchy .id         V1
#>            <int> <chr>                      <int> <chr>    <dbl>
#>  1             4 Organosulfur compounds         3 gnps1816  1   
#>  2             4 Organosulfur compounds         3 gnps1914  1   
#>  3             4 Organosulfur compounds         3 gnps201   1   
#>  4             4 Organosulfur compounds         3 gnps449   0.99
#>  5             4 Organosulfur compounds         3 gnps469   0.97
#>  6             4 Organosulfur compounds         3 gnps494   0.98
#>  7             4 Organosulfur compounds         3 gnps4969  1   
#>  8             4 Organosulfur compounds         3 gnps5242  0.99
#>  9             4 Organosulfur compounds         3 gnps5693  0.99
#> 10             4 Organosulfur compounds         3 gnps5917  0.99
#> # … with 1,322 more rows
…
  dplyr::as_tibble() %>%
  dplyr::rename(
    .id_1 = 1,
    .id_2 = 2
  ) %>% 
  dplyr::mutate(
    dotproduct = rnorm(1000, mean = 0.5, sd = 0.1), 
    mass_diff = rnorm(1000, mean = 200, sd = 50),
  )
tmp.edges <- tempfile()
### write done
MCnebula::write_tsv(edges, filename = tmp.edges)
### show details
edges
#> # A tibble: 1,000 × 4
#>    .id_1    .id_2    dotproduct mass_diff
#>    <chr>    <chr>         <dbl>     <dbl>
#>  1 gnps2299 gnps8202      0.791     150. 
#>  2 gnps2056 gnps3366      0.503     224. 
#>  3 gnps4151 gnps8192      0.414     199. 
#>  4 gnps2468 gnps2494      0.575     129. 
#>  5 gnps5852 gnps8615      0.604      90.1
#>  6 gnps2503 gnps4589      0.742     212. 
#>  7 gnps4564 gnps4790      0.650     128. 
#>  8 gnps2437 gnps5779      0.424     256. 
#>  9 gnps4589 gnps8087      0.530     223. 
#> 10 gnps4661 gnps6791      0.543     228. 
#> # … with 990 more rows
…
MCnebula::generate_parent_nebula(
  rm_parent_isolate_nodes = T,
  ## specify the edges file
  edges_file = tmp.edges
)
#> [INFO] MCnebula run: generate_parent_nebula
#> ## generate_parent_nebula: file.exists(edges_file) == T.
#> Escape from time-consuming computation
#> [INFO] MCnebula Job Done: generate_parent_nebula

This function will generate nodes data (chemical formula and strucutre annotation) and edges data (if the edges file were not specified but real-time computed). For most, parent-nebula graph was generated.

.MCn.parent_nodes
#> # A tibble: 700 × 14
#>    .id       rank precursorFormula molecularFormula adduct    ZodiacScore
#>    <chr>    <dbl> <chr>            <chr>            <chr>           <dbl>
#>  1 gnps106      1 C11H12O5         C11H12O5         [M + H]+        1    
#>  2 gnps108      1 C17H35NO2        C17H35NO2        [M + H]+        1    
#>  3 gnps1146     1 C19H22O11        C19H22O11        [M + Na]+       0.880
#>  4 gnps1153     1 C12H21N          C12H21N          [M + H]+        1    
#>  5 gnps1167     1 C22H32O3         C22H32O3         [M + H]+        1    
#>  6 gnps1168     1 C21H26O5         C21H26O5         [M + H]+        1    
#>  7 gnps1170     1 C24H34O4         C24H34O4         [M + H]+        1    
#>  8 gnps1171     1 C21H30O2         C21H30O2         [M + H]+        1    
#>  9 gnps1175     1 C22H38O5         C22H38O5         [M + Na]+       1    
#> 10 gnps1176     1 C21H28O5         C21H28O5         [M + H]+        1    
#> # … with 690 more rows, and 8 more variables: `massErrorPrecursor(ppm)` <dbl>,
#> #   use_zodiac <lgl>, file_name <chr>, score <dbl>, smiles <chr>,
#> #   tanimotoSimilarity <dbl>, structure_rank <dbl>, compound_name <chr>
…
